01-2020-04-19-23-42-06.png
01-arrange-dir.sh
02-2020-04-19-22-17-19.png
02-bulb-on.c
03-2020-04-19-22-31-23.png
03-return-position-element.c
04-2020-04-19-23-04-39.png
04-radius.c
05-2020-04-19-23-05-10.png
05-2020-04-19-23-41-45.png
05-no-of-max-apple.c
11.10.2017_y
a.out
images
info.txt
music
Result-2020-04-19-23-56-28.png
test.jpg
test.mp3
test.png
tmp.me
tree-small.jpeg
videos
